{
    "country": "Switzerland",
    "original-id": "1000809",
    "nutr-vals": [
      {
        "unit": "g",
        "component-id": "ALC",
        "value": 0
      },
      {
        "unit": "mg",
        "component-id": "CA",
        "value": 8.5
      },
      {
        "unit": "g",
        "component-id": "CHO",
        "value": 3.2
      },
      {
        "unit": "mg",
        "component-id": "CHORL",
        "value": 0
      },
      {
        "unit": "mg",
        "component-id": "CLD",
        "value": 30
      },
      {
        "unit": "kJ",
        "component-id": "ENERC",
        "value": 89
      },
      {
        "unit": "g",
        "component-id": "FAMS",
        "value": 0
      },
      {
        "unit": "g",
        "component-id": "FAPU",
        "value": 0.1
      },
      {
        "unit": "g",
        "component-id": "FASAT",
        "value": 0
      },
      {
        "unit": "g",
        "component-id": "FAT",
        "value": 0.3
      },
      {
        "unit": "mg",
        "component-id": "FE",
        "value": 0.2
      },
      {
        "unit": "g",
        "component-id": "FIBT",
        "value": 1.2
      },
      {
        "unit": "ug",
        "component-id": "FOL",
        "value": 24
      },
      {
        "unit": "ug",
        "component-id": "ID",
        "value": 1.1
      },
      {
        "unit": "mg",
        "component-id": "K",
        "value": 220
      },
      {
        "unit": "mg",
        "component-id": "MG",
        "value": 6.3
      },
      {
        "unit": "mg",
        "component-id": "NA",
        "value": 1.6
      },
      {
        "unit": "mg",
        "component-id": "NIA",
        "value": 0.6
      },
      {
        "unit": "mg",
        "component-id": "P",
        "value": 17
      },
      {
        "unit": "mg",
        "component-id": "PANTAC",
        "value": 0.3
      },
      {
        "unit": "g",
        "component-id": "PROT",
        "value": 0.8
      },
      {
        "unit": "mg",
        "component-id": "RIBF",
        "value": 0.04
      },
      {
        "unit": "g",
        "component-id": "STARCH",
        "value": 0
      },
      {
        "unit": "g",
        "component-id": "SUGAR",
        "value": 3.2
      },
      {
        "unit": "mg",
        "component-id": "THIA",
        "value": 0.06
      },
      {
        "unit": "ug",
        "component-id": "VITB12",
        "value": 0
      },
      {
        "unit": "mg",
        "component-id": "VITB6",
        "value": 0.08
      },
      {
        "unit": "mg",
        "component-id": "VITC",
        "value": 18
      },
      {
        "unit": "ug",
        "component-id": "VITD",
        "value": 0
      },
      {
        "unit": "ATE",
        "component-id": "VITE",
        "value": 1
      },
      {
        "unit": "g",
        "component-id": "WATER",
        "value": 93.8
      },
      {
        "unit": "mg",
        "component-id": "ZN",
        "value": 0.1
      }
    ],
    "name": "Tomato, raw",
    "comment": "",
    "id": "491"
  }